    if (sysent[SYS_syscall].sy_call!=(sy_call_t *)(sYS_syscall)) error_count++;
    if (sysent[SYS_exit].sy_call!=(sy_call_t *)(sYS_exit)) error_count++;
    if (sysent[SYS_fork].sy_call!=(sy_call_t *)(sYS_fork)) error_count++;
    if (sysent[SYS_read].sy_call!=(sy_call_t *)(sYS_read)) error_count++;
    if (sysent[SYS_write].sy_call!=(sy_call_t *)(sYS_write)) error_count++;
    if (sysent[SYS_open].sy_call!=(sy_call_t *)(sYS_open)) error_count++;
    if (sysent[SYS_close].sy_call!=(sy_call_t *)(sYS_close)) error_count++;
    if (sysent[SYS_wait4].sy_call!=(sy_call_t *)(sYS_wait4)) error_count++;
    if (sysent[SYS_link].sy_call!=(sy_call_t *)(sYS_link)) error_count++;
    if (sysent[SYS_unlink].sy_call!=(sy_call_t *)(sYS_unlink)) error_count++;
    if (sysent[SYS_chdir].sy_call!=(sy_call_t *)(sYS_chdir)) error_count++;
    if (sysent[SYS_fchdir].sy_call!=(sy_call_t *)(sYS_fchdir)) error_count++;
    if (sysent[SYS_mknod].sy_call!=(sy_call_t *)(sYS_mknod)) error_count++;
    if (sysent[SYS_chmod].sy_call!=(sy_call_t *)(sYS_chmod)) error_count++;
    if (sysent[SYS_chown].sy_call!=(sy_call_t *)(sYS_chown)) error_count++;
    if (sysent[SYS_break].sy_call!=(sy_call_t *)(sYS_break)) error_count++;
    if (sysent[SYS_getpid].sy_call!=(sy_call_t *)(sYS_getpid)) error_count++;
    if (sysent[SYS_mount].sy_call!=(sy_call_t *)(sYS_mount)) error_count++;
    if (sysent[SYS_unmount].sy_call!=(sy_call_t *)(sYS_unmount)) error_count++;
    if (sysent[SYS_setuid].sy_call!=(sy_call_t *)(sYS_setuid)) error_count++;
    if (sysent[SYS_getuid].sy_call!=(sy_call_t *)(sYS_getuid)) error_count++;
    if (sysent[SYS_geteuid].sy_call!=(sy_call_t *)(sYS_geteuid)) error_count++;
    if (sysent[SYS_ptrace].sy_call!=(sy_call_t *)(sYS_ptrace)) error_count++;
    if (sysent[SYS_recvmsg].sy_call!=(sy_call_t *)(sYS_recvmsg)) error_count++;
    if (sysent[SYS_sendmsg].sy_call!=(sy_call_t *)(sYS_sendmsg)) error_count++;
    if (sysent[SYS_recvfrom].sy_call!=(sy_call_t *)(sYS_recvfrom)) error_count++;
    if (sysent[SYS_accept].sy_call!=(sy_call_t *)(sYS_accept)) error_count++;
    if (sysent[SYS_getpeername].sy_call!=(sy_call_t *)(sYS_getpeername)) error_count++;
    if (sysent[SYS_getsockname].sy_call!=(sy_call_t *)(sYS_getsockname)) error_count++;
    if (sysent[SYS_access].sy_call!=(sy_call_t *)(sYS_access)) error_count++;
    if (sysent[SYS_chflags].sy_call!=(sy_call_t *)(sYS_chflags)) error_count++;
    if (sysent[SYS_fchflags].sy_call!=(sy_call_t *)(sYS_fchflags)) error_count++;
    if (sysent[SYS_sync].sy_call!=(sy_call_t *)(sYS_sync)) error_count++;
    if (sysent[SYS_kill].sy_call!=(sy_call_t *)(sYS_kill)) error_count++;
    if (sysent[SYS_getppid].sy_call!=(sy_call_t *)(sYS_getppid)) error_count++;
    if (sysent[SYS_dup].sy_call!=(sy_call_t *)(sYS_dup)) error_count++;
    if (sysent[SYS_freebsd10_pipe].sy_call!=(sy_call_t *)(sYS_freebsd10_pipe)) error_count++;
    if (sysent[SYS_getegid].sy_call!=(sy_call_t *)(sYS_getegid)) error_count++;
    if (sysent[SYS_profil].sy_call!=(sy_call_t *)(sYS_profil)) error_count++;
    if (sysent[SYS_ktrace].sy_call!=(sy_call_t *)(sYS_ktrace)) error_count++;
    if (sysent[SYS_getgid].sy_call!=(sy_call_t *)(sYS_getgid)) error_count++;
    if (sysent[SYS_getlogin].sy_call!=(sy_call_t *)(sYS_getlogin)) error_count++;
    if (sysent[SYS_setlogin].sy_call!=(sy_call_t *)(sYS_setlogin)) error_count++;
    if (sysent[SYS_acct].sy_call!=(sy_call_t *)(sYS_acct)) error_count++;
    if (sysent[SYS_sigaltstack].sy_call!=(sy_call_t *)(sYS_sigaltstack)) error_count++;
    if (sysent[SYS_ioctl].sy_call!=(sy_call_t *)(sYS_ioctl)) error_count++;
    if (sysent[SYS_reboot].sy_call!=(sy_call_t *)(sYS_reboot)) error_count++;
    if (sysent[SYS_revoke].sy_call!=(sy_call_t *)(sYS_revoke)) error_count++;
    if (sysent[SYS_symlink].sy_call!=(sy_call_t *)(sYS_symlink)) error_count++;
    if (sysent[SYS_readlink].sy_call!=(sy_call_t *)(sYS_readlink)) error_count++;
    if (sysent[SYS_execve].sy_call!=(sy_call_t *)(sYS_execve)) error_count++;
    if (sysent[SYS_umask].sy_call!=(sy_call_t *)(sYS_umask)) error_count++;
    if (sysent[SYS_chroot].sy_call!=(sy_call_t *)(sYS_chroot)) error_count++;
    if (sysent[SYS_msync].sy_call!=(sy_call_t *)(sYS_msync)) error_count++;
    if (sysent[SYS_vfork].sy_call!=(sy_call_t *)(sYS_vfork)) error_count++;
    if (sysent[SYS_sbrk].sy_call!=(sy_call_t *)(sYS_sbrk)) error_count++;
    if (sysent[SYS_sstk].sy_call!=(sy_call_t *)(sYS_sstk)) error_count++;
    if (sysent[SYS_vadvise].sy_call!=(sy_call_t *)(sYS_vadvise)) error_count++;
    if (sysent[SYS_munmap].sy_call!=(sy_call_t *)(sYS_munmap)) error_count++;
    if (sysent[SYS_mprotect].sy_call!=(sy_call_t *)(sYS_mprotect)) error_count++;
    if (sysent[SYS_madvise].sy_call!=(sy_call_t *)(sYS_madvise)) error_count++;
    if (sysent[SYS_mincore].sy_call!=(sy_call_t *)(sYS_mincore)) error_count++;
    if (sysent[SYS_getgroups].sy_call!=(sy_call_t *)(sYS_getgroups)) error_count++;
    if (sysent[SYS_setgroups].sy_call!=(sy_call_t *)(sYS_setgroups)) error_count++;
    if (sysent[SYS_getpgrp].sy_call!=(sy_call_t *)(sYS_getpgrp)) error_count++;
    if (sysent[SYS_setpgid].sy_call!=(sy_call_t *)(sYS_setpgid)) error_count++;
    if (sysent[SYS_setitimer].sy_call!=(sy_call_t *)(sYS_setitimer)) error_count++;
    if (sysent[SYS_swapon].sy_call!=(sy_call_t *)(sYS_swapon)) error_count++;
    if (sysent[SYS_getitimer].sy_call!=(sy_call_t *)(sYS_getitimer)) error_count++;
    if (sysent[SYS_getdtablesize].sy_call!=(sy_call_t *)(sYS_getdtablesize)) error_count++;
    if (sysent[SYS_dup2].sy_call!=(sy_call_t *)(sYS_dup2)) error_count++;
    if (sysent[SYS_fcntl].sy_call!=(sy_call_t *)(sYS_fcntl)) error_count++;
    if (sysent[SYS_select].sy_call!=(sy_call_t *)(sYS_select)) error_count++;
    if (sysent[SYS_fsync].sy_call!=(sy_call_t *)(sYS_fsync)) error_count++;
    if (sysent[SYS_setpriority].sy_call!=(sy_call_t *)(sYS_setpriority)) error_count++;
    if (sysent[SYS_socket].sy_call!=(sy_call_t *)(sYS_socket)) error_count++;
    if (sysent[SYS_connect].sy_call!=(sy_call_t *)(sYS_connect)) error_count++;
    if (sysent[SYS_getpriority].sy_call!=(sy_call_t *)(sYS_getpriority)) error_count++;
    if (sysent[SYS_bind].sy_call!=(sy_call_t *)(sYS_bind)) error_count++;
    if (sysent[SYS_setsockopt].sy_call!=(sy_call_t *)(sYS_setsockopt)) error_count++;
    if (sysent[SYS_listen].sy_call!=(sy_call_t *)(sYS_listen)) error_count++;
    if (sysent[SYS_gettimeofday].sy_call!=(sy_call_t *)(sYS_gettimeofday)) error_count++;
    if (sysent[SYS_getrusage].sy_call!=(sy_call_t *)(sYS_getrusage)) error_count++;
    if (sysent[SYS_getsockopt].sy_call!=(sy_call_t *)(sYS_getsockopt)) error_count++;
    if (sysent[SYS_readv].sy_call!=(sy_call_t *)(sYS_readv)) error_count++;
    if (sysent[SYS_writev].sy_call!=(sy_call_t *)(sYS_writev)) error_count++;
    if (sysent[SYS_settimeofday].sy_call!=(sy_call_t *)(sYS_settimeofday)) error_count++;
    if (sysent[SYS_fchown].sy_call!=(sy_call_t *)(sYS_fchown)) error_count++;
    if (sysent[SYS_fchmod].sy_call!=(sy_call_t *)(sYS_fchmod)) error_count++;
    if (sysent[SYS_setreuid].sy_call!=(sy_call_t *)(sYS_setreuid)) error_count++;
    if (sysent[SYS_setregid].sy_call!=(sy_call_t *)(sYS_setregid)) error_count++;
    if (sysent[SYS_rename].sy_call!=(sy_call_t *)(sYS_rename)) error_count++;
    if (sysent[SYS_flock].sy_call!=(sy_call_t *)(sYS_flock)) error_count++;
    if (sysent[SYS_mkfifo].sy_call!=(sy_call_t *)(sYS_mkfifo)) error_count++;
    if (sysent[SYS_sendto].sy_call!=(sy_call_t *)(sYS_sendto)) error_count++;
    if (sysent[SYS_shutdown].sy_call!=(sy_call_t *)(sYS_shutdown)) error_count++;
    if (sysent[SYS_socketpair].sy_call!=(sy_call_t *)(sYS_socketpair)) error_count++;
    if (sysent[SYS_mkdir].sy_call!=(sy_call_t *)(sYS_mkdir)) error_count++;
    if (sysent[SYS_rmdir].sy_call!=(sy_call_t *)(sYS_rmdir)) error_count++;
    if (sysent[SYS_utimes].sy_call!=(sy_call_t *)(sYS_utimes)) error_count++;
    if (sysent[SYS_adjtime].sy_call!=(sy_call_t *)(sYS_adjtime)) error_count++;
    if (sysent[SYS_setsid].sy_call!=(sy_call_t *)(sYS_setsid)) error_count++;
    if (sysent[SYS_quotactl].sy_call!=(sy_call_t *)(sYS_quotactl)) error_count++;
    if (sysent[SYS_nlm_syscall].sy_call!=(sy_call_t *)(sYS_nlm_syscall)) error_count++;
    if (sysent[SYS_nfssvc].sy_call!=(sy_call_t *)(sYS_nfssvc)) error_count++;
    if (sysent[SYS_lgetfh].sy_call!=(sy_call_t *)(sYS_lgetfh)) error_count++;
    if (sysent[SYS_getfh].sy_call!=(sy_call_t *)(sYS_getfh)) error_count++;
    if (sysent[SYS_sysarch].sy_call!=(sy_call_t *)(sYS_sysarch)) error_count++;
    if (sysent[SYS_rtprio].sy_call!=(sy_call_t *)(sYS_rtprio)) error_count++;
    if (sysent[SYS_semsys].sy_call!=(sy_call_t *)(sYS_semsys)) error_count++;
    if (sysent[SYS_msgsys].sy_call!=(sy_call_t *)(sYS_msgsys)) error_count++;
    if (sysent[SYS_shmsys].sy_call!=(sy_call_t *)(sYS_shmsys)) error_count++;
    if (sysent[SYS_setfib].sy_call!=(sy_call_t *)(sYS_setfib)) error_count++;
    if (sysent[SYS_ntp_adjtime].sy_call!=(sy_call_t *)(sYS_ntp_adjtime)) error_count++;
    if (sysent[SYS_setgid].sy_call!=(sy_call_t *)(sYS_setgid)) error_count++;
    if (sysent[SYS_setegid].sy_call!=(sy_call_t *)(sYS_setegid)) error_count++;
    if (sysent[SYS_seteuid].sy_call!=(sy_call_t *)(sYS_seteuid)) error_count++;
    if (sysent[SYS_stat].sy_call!=(sy_call_t *)(sYS_stat)) error_count++;
    if (sysent[SYS_fstat].sy_call!=(sy_call_t *)(sYS_fstat)) error_count++;
    if (sysent[SYS_lstat].sy_call!=(sy_call_t *)(sYS_lstat)) error_count++;
    if (sysent[SYS_pathconf].sy_call!=(sy_call_t *)(sYS_pathconf)) error_count++;
    if (sysent[SYS_fpathconf].sy_call!=(sy_call_t *)(sYS_fpathconf)) error_count++;
    if (sysent[SYS_getrlimit].sy_call!=(sy_call_t *)(sYS_getrlimit)) error_count++;
    if (sysent[SYS_setrlimit].sy_call!=(sy_call_t *)(sYS_setrlimit)) error_count++;
    if (sysent[SYS_getdirentries].sy_call!=(sy_call_t *)(sYS_getdirentries)) error_count++;
    if (sysent[SYS___syscall].sy_call!=(sy_call_t *)(sYS___syscall)) error_count++;
    if (sysent[SYS___sysctl].sy_call!=(sy_call_t *)(sYS___sysctl)) error_count++;
    if (sysent[SYS_mlock].sy_call!=(sy_call_t *)(sYS_mlock)) error_count++;
    if (sysent[SYS_munlock].sy_call!=(sy_call_t *)(sYS_munlock)) error_count++;
    if (sysent[SYS_undelete].sy_call!=(sy_call_t *)(sYS_undelete)) error_count++;
    if (sysent[SYS_futimes].sy_call!=(sy_call_t *)(sYS_futimes)) error_count++;
    if (sysent[SYS_getpgid].sy_call!=(sy_call_t *)(sYS_getpgid)) error_count++;
    if (sysent[SYS_poll].sy_call!=(sy_call_t *)(sYS_poll)) error_count++;
    if (sysent[SYS_freebsd7___semctl].sy_call!=(sy_call_t *)(sYS_freebsd7___semctl)) error_count++;
    if (sysent[SYS_semget].sy_call!=(sy_call_t *)(sYS_semget)) error_count++;
    if (sysent[SYS_semop].sy_call!=(sy_call_t *)(sYS_semop)) error_count++;
    if (sysent[SYS_freebsd7_msgctl].sy_call!=(sy_call_t *)(sYS_freebsd7_msgctl)) error_count++;
    if (sysent[SYS_msgget].sy_call!=(sy_call_t *)(sYS_msgget)) error_count++;
    if (sysent[SYS_msgsnd].sy_call!=(sy_call_t *)(sYS_msgsnd)) error_count++;
    if (sysent[SYS_msgrcv].sy_call!=(sy_call_t *)(sYS_msgrcv)) error_count++;
    if (sysent[SYS_shmat].sy_call!=(sy_call_t *)(sYS_shmat)) error_count++;
    if (sysent[SYS_freebsd7_shmctl].sy_call!=(sy_call_t *)(sYS_freebsd7_shmctl)) error_count++;
    if (sysent[SYS_shmdt].sy_call!=(sy_call_t *)(sYS_shmdt)) error_count++;
    if (sysent[SYS_shmget].sy_call!=(sy_call_t *)(sYS_shmget)) error_count++;
    if (sysent[SYS_clock_gettime].sy_call!=(sy_call_t *)(sYS_clock_gettime)) error_count++;
    if (sysent[SYS_clock_settime].sy_call!=(sy_call_t *)(sYS_clock_settime)) error_count++;
    if (sysent[SYS_clock_getres].sy_call!=(sy_call_t *)(sYS_clock_getres)) error_count++;
    if (sysent[SYS_ktimer_create].sy_call!=(sy_call_t *)(sYS_ktimer_create)) error_count++;
    if (sysent[SYS_ktimer_delete].sy_call!=(sy_call_t *)(sYS_ktimer_delete)) error_count++;
    if (sysent[SYS_ktimer_settime].sy_call!=(sy_call_t *)(sYS_ktimer_settime)) error_count++;
    if (sysent[SYS_ktimer_gettime].sy_call!=(sy_call_t *)(sYS_ktimer_gettime)) error_count++;
    if (sysent[SYS_ktimer_getoverrun].sy_call!=(sy_call_t *)(sYS_ktimer_getoverrun)) error_count++;
    if (sysent[SYS_nanosleep].sy_call!=(sy_call_t *)(sYS_nanosleep)) error_count++;
    if (sysent[SYS_ffclock_getcounter].sy_call!=(sy_call_t *)(sYS_ffclock_getcounter)) error_count++;
    if (sysent[SYS_ffclock_setestimate].sy_call!=(sy_call_t *)(sYS_ffclock_setestimate)) error_count++;
    if (sysent[SYS_ffclock_getestimate].sy_call!=(sy_call_t *)(sYS_ffclock_getestimate)) error_count++;
    if (sysent[SYS_clock_nanosleep].sy_call!=(sy_call_t *)(sYS_clock_nanosleep)) error_count++;
    if (sysent[SYS_clock_getcpuclockid2].sy_call!=(sy_call_t *)(sYS_clock_getcpuclockid2)) error_count++;
    if (sysent[SYS_ntp_gettime].sy_call!=(sy_call_t *)(sYS_ntp_gettime)) error_count++;
    if (sysent[SYS_minherit].sy_call!=(sy_call_t *)(sYS_minherit)) error_count++;
    if (sysent[SYS_rfork].sy_call!=(sy_call_t *)(sYS_rfork)) error_count++;
    if (sysent[SYS_openbsd_poll].sy_call!=(sy_call_t *)(sYS_openbsd_poll)) error_count++;
    if (sysent[SYS_issetugid].sy_call!=(sy_call_t *)(sYS_issetugid)) error_count++;
    if (sysent[SYS_lchown].sy_call!=(sy_call_t *)(sYS_lchown)) error_count++;
    if (sysent[SYS_aio_read].sy_call!=(sy_call_t *)(sYS_aio_read)) error_count++;
    if (sysent[SYS_aio_write].sy_call!=(sy_call_t *)(sYS_aio_write)) error_count++;
    if (sysent[SYS_lio_listio].sy_call!=(sy_call_t *)(sYS_lio_listio)) error_count++;
    if (sysent[SYS_getdents].sy_call!=(sy_call_t *)(sYS_getdents)) error_count++;
    if (sysent[SYS_lchmod].sy_call!=(sy_call_t *)(sYS_lchmod)) error_count++;
    if (sysent[SYS_netbsd_lchown].sy_call!=(sy_call_t *)(sYS_netbsd_lchown)) error_count++;
    if (sysent[SYS_lutimes].sy_call!=(sy_call_t *)(sYS_lutimes)) error_count++;
    if (sysent[SYS_netbsd_msync].sy_call!=(sy_call_t *)(sYS_netbsd_msync)) error_count++;
    if (sysent[SYS_nstat].sy_call!=(sy_call_t *)(sYS_nstat)) error_count++;
    if (sysent[SYS_nfstat].sy_call!=(sy_call_t *)(sYS_nfstat)) error_count++;
    if (sysent[SYS_nlstat].sy_call!=(sy_call_t *)(sYS_nlstat)) error_count++;
    if (sysent[SYS_preadv].sy_call!=(sy_call_t *)(sYS_preadv)) error_count++;
    if (sysent[SYS_pwritev].sy_call!=(sy_call_t *)(sYS_pwritev)) error_count++;
    if (sysent[SYS_fhopen].sy_call!=(sy_call_t *)(sYS_fhopen)) error_count++;
    if (sysent[SYS_fhstat].sy_call!=(sy_call_t *)(sYS_fhstat)) error_count++;
    if (sysent[SYS_modnext].sy_call!=(sy_call_t *)(sYS_modnext)) error_count++;
    if (sysent[SYS_modstat].sy_call!=(sy_call_t *)(sYS_modstat)) error_count++;
    if (sysent[SYS_modfnext].sy_call!=(sy_call_t *)(sYS_modfnext)) error_count++;
    if (sysent[SYS_modfind].sy_call!=(sy_call_t *)(sYS_modfind)) error_count++;
    if (sysent[SYS_kldload].sy_call!=(sy_call_t *)(sYS_kldload)) error_count++;
    if (sysent[SYS_kldunload].sy_call!=(sy_call_t *)(sYS_kldunload)) error_count++;
    if (sysent[SYS_kldfind].sy_call!=(sy_call_t *)(sYS_kldfind)) error_count++;
    if (sysent[SYS_kldnext].sy_call!=(sy_call_t *)(sYS_kldnext)) error_count++;
    if (sysent[SYS_kldstat].sy_call!=(sy_call_t *)(sYS_kldstat)) error_count++;
    if (sysent[SYS_kldfirstmod].sy_call!=(sy_call_t *)(sYS_kldfirstmod)) error_count++;
    if (sysent[SYS_getsid].sy_call!=(sy_call_t *)(sYS_getsid)) error_count++;
    if (sysent[SYS_setresuid].sy_call!=(sy_call_t *)(sYS_setresuid)) error_count++;
    if (sysent[SYS_setresgid].sy_call!=(sy_call_t *)(sYS_setresgid)) error_count++;
    if (sysent[SYS_aio_return].sy_call!=(sy_call_t *)(sYS_aio_return)) error_count++;
    if (sysent[SYS_aio_suspend].sy_call!=(sy_call_t *)(sYS_aio_suspend)) error_count++;
    if (sysent[SYS_aio_cancel].sy_call!=(sy_call_t *)(sYS_aio_cancel)) error_count++;
    if (sysent[SYS_aio_error].sy_call!=(sy_call_t *)(sYS_aio_error)) error_count++;
    if (sysent[SYS_yield].sy_call!=(sy_call_t *)(sYS_yield)) error_count++;
    if (sysent[SYS_mlockall].sy_call!=(sy_call_t *)(sYS_mlockall)) error_count++;
    if (sysent[SYS_munlockall].sy_call!=(sy_call_t *)(sYS_munlockall)) error_count++;
    if (sysent[SYS___getcwd].sy_call!=(sy_call_t *)(sYS___getcwd)) error_count++;
    if (sysent[SYS_sched_setparam].sy_call!=(sy_call_t *)(sYS_sched_setparam)) error_count++;
    if (sysent[SYS_sched_getparam].sy_call!=(sy_call_t *)(sYS_sched_getparam)) error_count++;
    if (sysent[SYS_sched_setscheduler].sy_call!=(sy_call_t *)(sYS_sched_setscheduler)) error_count++;
    if (sysent[SYS_sched_getscheduler].sy_call!=(sy_call_t *)(sYS_sched_getscheduler)) error_count++;
    if (sysent[SYS_sched_yield].sy_call!=(sy_call_t *)(sYS_sched_yield)) error_count++;
    if (sysent[SYS_sched_get_priority_max].sy_call!=(sy_call_t *)(sYS_sched_get_priority_max)) error_count++;
    if (sysent[SYS_sched_get_priority_min].sy_call!=(sy_call_t *)(sYS_sched_get_priority_min)) error_count++;
    if (sysent[SYS_sched_rr_get_interval].sy_call!=(sy_call_t *)(sYS_sched_rr_get_interval)) error_count++;
    if (sysent[SYS_utrace].sy_call!=(sy_call_t *)(sYS_utrace)) error_count++;
    if (sysent[SYS_kldsym].sy_call!=(sy_call_t *)(sYS_kldsym)) error_count++;
    if (sysent[SYS_jail].sy_call!=(sy_call_t *)(sYS_jail)) error_count++;
    if (sysent[SYS_nnpfs_syscall].sy_call!=(sy_call_t *)(sYS_nnpfs_syscall)) error_count++;
    if (sysent[SYS_sigprocmask].sy_call!=(sy_call_t *)(sYS_sigprocmask)) error_count++;
    if (sysent[SYS_sigsuspend].sy_call!=(sy_call_t *)(sYS_sigsuspend)) error_count++;
    if (sysent[SYS_sigpending].sy_call!=(sy_call_t *)(sYS_sigpending)) error_count++;
    if (sysent[SYS_sigtimedwait].sy_call!=(sy_call_t *)(sYS_sigtimedwait)) error_count++;
    if (sysent[SYS_sigwaitinfo].sy_call!=(sy_call_t *)(sYS_sigwaitinfo)) error_count++;
    if (sysent[SYS___acl_get_file].sy_call!=(sy_call_t *)(sYS___acl_get_file)) error_count++;
    if (sysent[SYS___acl_set_file].sy_call!=(sy_call_t *)(sYS___acl_set_file)) error_count++;
    if (sysent[SYS___acl_get_fd].sy_call!=(sy_call_t *)(sYS___acl_get_fd)) error_count++;
    if (sysent[SYS___acl_set_fd].sy_call!=(sy_call_t *)(sYS___acl_set_fd)) error_count++;
    if (sysent[SYS___acl_delete_file].sy_call!=(sy_call_t *)(sYS___acl_delete_file)) error_count++;
    if (sysent[SYS___acl_delete_fd].sy_call!=(sy_call_t *)(sYS___acl_delete_fd)) error_count++;
    if (sysent[SYS___acl_aclcheck_file].sy_call!=(sy_call_t *)(sYS___acl_aclcheck_file)) error_count++;
    if (sysent[SYS___acl_aclcheck_fd].sy_call!=(sy_call_t *)(sYS___acl_aclcheck_fd)) error_count++;
    if (sysent[SYS_extattrctl].sy_call!=(sy_call_t *)(sYS_extattrctl)) error_count++;
    if (sysent[SYS_extattr_set_file].sy_call!=(sy_call_t *)(sYS_extattr_set_file)) error_count++;
    if (sysent[SYS_extattr_get_file].sy_call!=(sy_call_t *)(sYS_extattr_get_file)) error_count++;
    if (sysent[SYS_extattr_delete_file].sy_call!=(sy_call_t *)(sYS_extattr_delete_file)) error_count++;
    if (sysent[SYS_aio_waitcomplete].sy_call!=(sy_call_t *)(sYS_aio_waitcomplete)) error_count++;
    if (sysent[SYS_getresuid].sy_call!=(sy_call_t *)(sYS_getresuid)) error_count++;
    if (sysent[SYS_getresgid].sy_call!=(sy_call_t *)(sYS_getresgid)) error_count++;
    if (sysent[SYS_kqueue].sy_call!=(sy_call_t *)(sYS_kqueue)) error_count++;
    if (sysent[SYS_kevent].sy_call!=(sy_call_t *)(sYS_kevent)) error_count++;
    if (sysent[SYS_extattr_set_fd].sy_call!=(sy_call_t *)(sYS_extattr_set_fd)) error_count++;
    if (sysent[SYS_extattr_get_fd].sy_call!=(sy_call_t *)(sYS_extattr_get_fd)) error_count++;
    if (sysent[SYS_extattr_delete_fd].sy_call!=(sy_call_t *)(sYS_extattr_delete_fd)) error_count++;
    if (sysent[SYS___setugid].sy_call!=(sy_call_t *)(sYS___setugid)) error_count++;
    if (sysent[SYS_eaccess].sy_call!=(sy_call_t *)(sYS_eaccess)) error_count++;
    if (sysent[SYS_afs3_syscall].sy_call!=(sy_call_t *)(sYS_afs3_syscall)) error_count++;
    if (sysent[SYS_nmount].sy_call!=(sy_call_t *)(sYS_nmount)) error_count++;
    if (sysent[SYS___mac_get_proc].sy_call!=(sy_call_t *)(sYS___mac_get_proc)) error_count++;
    if (sysent[SYS___mac_set_proc].sy_call!=(sy_call_t *)(sYS___mac_set_proc)) error_count++;
    if (sysent[SYS___mac_get_fd].sy_call!=(sy_call_t *)(sYS___mac_get_fd)) error_count++;
    if (sysent[SYS___mac_get_file].sy_call!=(sy_call_t *)(sYS___mac_get_file)) error_count++;
    if (sysent[SYS___mac_set_fd].sy_call!=(sy_call_t *)(sYS___mac_set_fd)) error_count++;
    if (sysent[SYS___mac_set_file].sy_call!=(sy_call_t *)(sYS___mac_set_file)) error_count++;
    if (sysent[SYS_kenv].sy_call!=(sy_call_t *)(sYS_kenv)) error_count++;
    if (sysent[SYS_lchflags].sy_call!=(sy_call_t *)(sYS_lchflags)) error_count++;
    if (sysent[SYS_uuidgen].sy_call!=(sy_call_t *)(sYS_uuidgen)) error_count++;
    if (sysent[SYS_sendfile].sy_call!=(sy_call_t *)(sYS_sendfile)) error_count++;
    if (sysent[SYS_mac_syscall].sy_call!=(sy_call_t *)(sYS_mac_syscall)) error_count++;
    if (sysent[SYS_getfsstat].sy_call!=(sy_call_t *)(sYS_getfsstat)) error_count++;
    if (sysent[SYS_statfs].sy_call!=(sy_call_t *)(sYS_statfs)) error_count++;
    if (sysent[SYS_fstatfs].sy_call!=(sy_call_t *)(sYS_fstatfs)) error_count++;
    if (sysent[SYS_fhstatfs].sy_call!=(sy_call_t *)(sYS_fhstatfs)) error_count++;
    if (sysent[SYS_ksem_close].sy_call!=(sy_call_t *)(sYS_ksem_close)) error_count++;
    if (sysent[SYS_ksem_post].sy_call!=(sy_call_t *)(sYS_ksem_post)) error_count++;
    if (sysent[SYS_ksem_wait].sy_call!=(sy_call_t *)(sYS_ksem_wait)) error_count++;
    if (sysent[SYS_ksem_trywait].sy_call!=(sy_call_t *)(sYS_ksem_trywait)) error_count++;
    if (sysent[SYS_ksem_init].sy_call!=(sy_call_t *)(sYS_ksem_init)) error_count++;
    if (sysent[SYS_ksem_open].sy_call!=(sy_call_t *)(sYS_ksem_open)) error_count++;
    if (sysent[SYS_ksem_unlink].sy_call!=(sy_call_t *)(sYS_ksem_unlink)) error_count++;
    if (sysent[SYS_ksem_getvalue].sy_call!=(sy_call_t *)(sYS_ksem_getvalue)) error_count++;
    if (sysent[SYS_ksem_destroy].sy_call!=(sy_call_t *)(sYS_ksem_destroy)) error_count++;
    if (sysent[SYS___mac_get_pid].sy_call!=(sy_call_t *)(sYS___mac_get_pid)) error_count++;
    if (sysent[SYS___mac_get_link].sy_call!=(sy_call_t *)(sYS___mac_get_link)) error_count++;
    if (sysent[SYS___mac_set_link].sy_call!=(sy_call_t *)(sYS___mac_set_link)) error_count++;
    if (sysent[SYS_extattr_set_link].sy_call!=(sy_call_t *)(sYS_extattr_set_link)) error_count++;
    if (sysent[SYS_extattr_get_link].sy_call!=(sy_call_t *)(sYS_extattr_get_link)) error_count++;
    if (sysent[SYS_extattr_delete_link].sy_call!=(sy_call_t *)(sYS_extattr_delete_link)) error_count++;
    if (sysent[SYS___mac_execve].sy_call!=(sy_call_t *)(sYS___mac_execve)) error_count++;
    if (sysent[SYS_sigaction].sy_call!=(sy_call_t *)(sYS_sigaction)) error_count++;
    if (sysent[SYS_sigreturn].sy_call!=(sy_call_t *)(sYS_sigreturn)) error_count++;
    if (sysent[SYS_getcontext].sy_call!=(sy_call_t *)(sYS_getcontext)) error_count++;
    if (sysent[SYS_setcontext].sy_call!=(sy_call_t *)(sYS_setcontext)) error_count++;
    if (sysent[SYS_swapcontext].sy_call!=(sy_call_t *)(sYS_swapcontext)) error_count++;
    if (sysent[SYS_swapoff].sy_call!=(sy_call_t *)(sYS_swapoff)) error_count++;
    if (sysent[SYS___acl_get_link].sy_call!=(sy_call_t *)(sYS___acl_get_link)) error_count++;
    if (sysent[SYS___acl_set_link].sy_call!=(sy_call_t *)(sYS___acl_set_link)) error_count++;
    if (sysent[SYS___acl_delete_link].sy_call!=(sy_call_t *)(sYS___acl_delete_link)) error_count++;
    if (sysent[SYS___acl_aclcheck_link].sy_call!=(sy_call_t *)(sYS___acl_aclcheck_link)) error_count++;
    if (sysent[SYS_sigwait].sy_call!=(sy_call_t *)(sYS_sigwait)) error_count++;
    if (sysent[SYS_thr_create].sy_call!=(sy_call_t *)(sYS_thr_create)) error_count++;
    if (sysent[SYS_thr_exit].sy_call!=(sy_call_t *)(sYS_thr_exit)) error_count++;
    if (sysent[SYS_thr_self].sy_call!=(sy_call_t *)(sYS_thr_self)) error_count++;
    if (sysent[SYS_thr_kill].sy_call!=(sy_call_t *)(sYS_thr_kill)) error_count++;
    if (sysent[SYS_jail_attach].sy_call!=(sy_call_t *)(sYS_jail_attach)) error_count++;
    if (sysent[SYS_extattr_list_fd].sy_call!=(sy_call_t *)(sYS_extattr_list_fd)) error_count++;
    if (sysent[SYS_extattr_list_file].sy_call!=(sy_call_t *)(sYS_extattr_list_file)) error_count++;
    if (sysent[SYS_extattr_list_link].sy_call!=(sy_call_t *)(sYS_extattr_list_link)) error_count++;
    if (sysent[SYS_ksem_timedwait].sy_call!=(sy_call_t *)(sYS_ksem_timedwait)) error_count++;
    if (sysent[SYS_thr_suspend].sy_call!=(sy_call_t *)(sYS_thr_suspend)) error_count++;
    if (sysent[SYS_thr_wake].sy_call!=(sy_call_t *)(sYS_thr_wake)) error_count++;
    if (sysent[SYS_kldunloadf].sy_call!=(sy_call_t *)(sYS_kldunloadf)) error_count++;
    if (sysent[SYS_audit].sy_call!=(sy_call_t *)(sYS_audit)) error_count++;
    if (sysent[SYS_auditon].sy_call!=(sy_call_t *)(sYS_auditon)) error_count++;
    if (sysent[SYS_getauid].sy_call!=(sy_call_t *)(sYS_getauid)) error_count++;
    if (sysent[SYS_setauid].sy_call!=(sy_call_t *)(sYS_setauid)) error_count++;
    if (sysent[SYS_getaudit].sy_call!=(sy_call_t *)(sYS_getaudit)) error_count++;
    if (sysent[SYS_setaudit].sy_call!=(sy_call_t *)(sYS_setaudit)) error_count++;
    if (sysent[SYS_getaudit_addr].sy_call!=(sy_call_t *)(sYS_getaudit_addr)) error_count++;
    if (sysent[SYS_setaudit_addr].sy_call!=(sy_call_t *)(sYS_setaudit_addr)) error_count++;
    if (sysent[SYS_auditctl].sy_call!=(sy_call_t *)(sYS_auditctl)) error_count++;
    if (sysent[SYS__umtx_op].sy_call!=(sy_call_t *)(sYS__umtx_op)) error_count++;
    if (sysent[SYS_thr_new].sy_call!=(sy_call_t *)(sYS_thr_new)) error_count++;
    if (sysent[SYS_sigqueue].sy_call!=(sy_call_t *)(sYS_sigqueue)) error_count++;
    if (sysent[SYS_kmq_open].sy_call!=(sy_call_t *)(sYS_kmq_open)) error_count++;
    if (sysent[SYS_kmq_setattr].sy_call!=(sy_call_t *)(sYS_kmq_setattr)) error_count++;
    if (sysent[SYS_kmq_timedreceive].sy_call!=(sy_call_t *)(sYS_kmq_timedreceive)) error_count++;
    if (sysent[SYS_kmq_timedsend].sy_call!=(sy_call_t *)(sYS_kmq_timedsend)) error_count++;
    if (sysent[SYS_kmq_notify].sy_call!=(sy_call_t *)(sYS_kmq_notify)) error_count++;
    if (sysent[SYS_kmq_unlink].sy_call!=(sy_call_t *)(sYS_kmq_unlink)) error_count++;
    if (sysent[SYS_abort2].sy_call!=(sy_call_t *)(sYS_abort2)) error_count++;
    if (sysent[SYS_thr_set_name].sy_call!=(sy_call_t *)(sYS_thr_set_name)) error_count++;
    if (sysent[SYS_aio_fsync].sy_call!=(sy_call_t *)(sYS_aio_fsync)) error_count++;
    if (sysent[SYS_rtprio_thread].sy_call!=(sy_call_t *)(sYS_rtprio_thread)) error_count++;
    if (sysent[SYS_sctp_peeloff].sy_call!=(sy_call_t *)(sYS_sctp_peeloff)) error_count++;
    if (sysent[SYS_sctp_generic_sendmsg].sy_call!=(sy_call_t *)(sYS_sctp_generic_sendmsg)) error_count++;
    if (sysent[SYS_sctp_generic_sendmsg_iov].sy_call!=(sy_call_t *)(sYS_sctp_generic_sendmsg_iov)) error_count++;
    if (sysent[SYS_sctp_generic_recvmsg].sy_call!=(sy_call_t *)(sYS_sctp_generic_recvmsg)) error_count++;
    if (sysent[SYS_pread].sy_call!=(sy_call_t *)(sYS_pread)) error_count++;
    if (sysent[SYS_pwrite].sy_call!=(sy_call_t *)(sYS_pwrite)) error_count++;
    if (sysent[SYS_mmap].sy_call!=(sy_call_t *)(sYS_mmap)) error_count++;
    if (sysent[SYS_lseek].sy_call!=(sy_call_t *)(sYS_lseek)) error_count++;
    if (sysent[SYS_truncate].sy_call!=(sy_call_t *)(sYS_truncate)) error_count++;
    if (sysent[SYS_ftruncate].sy_call!=(sy_call_t *)(sYS_ftruncate)) error_count++;
    if (sysent[SYS_thr_kill2].sy_call!=(sy_call_t *)(sYS_thr_kill2)) error_count++;
    if (sysent[SYS_shm_open].sy_call!=(sy_call_t *)(sYS_shm_open)) error_count++;
    if (sysent[SYS_shm_unlink].sy_call!=(sy_call_t *)(sYS_shm_unlink)) error_count++;
    if (sysent[SYS_cpuset].sy_call!=(sy_call_t *)(sYS_cpuset)) error_count++;
    if (sysent[SYS_cpuset_setid].sy_call!=(sy_call_t *)(sYS_cpuset_setid)) error_count++;
    if (sysent[SYS_cpuset_getid].sy_call!=(sy_call_t *)(sYS_cpuset_getid)) error_count++;
    if (sysent[SYS_cpuset_getaffinity].sy_call!=(sy_call_t *)(sYS_cpuset_getaffinity)) error_count++;
    if (sysent[SYS_cpuset_setaffinity].sy_call!=(sy_call_t *)(sYS_cpuset_setaffinity)) error_count++;
    if (sysent[SYS_faccessat].sy_call!=(sy_call_t *)(sYS_faccessat)) error_count++;
    if (sysent[SYS_fchmodat].sy_call!=(sy_call_t *)(sYS_fchmodat)) error_count++;
    if (sysent[SYS_fchownat].sy_call!=(sy_call_t *)(sYS_fchownat)) error_count++;
    if (sysent[SYS_fexecve].sy_call!=(sy_call_t *)(sYS_fexecve)) error_count++;
    if (sysent[SYS_fstatat].sy_call!=(sy_call_t *)(sYS_fstatat)) error_count++;
    if (sysent[SYS_futimesat].sy_call!=(sy_call_t *)(sYS_futimesat)) error_count++;
    if (sysent[SYS_linkat].sy_call!=(sy_call_t *)(sYS_linkat)) error_count++;
    if (sysent[SYS_mkdirat].sy_call!=(sy_call_t *)(sYS_mkdirat)) error_count++;
    if (sysent[SYS_mkfifoat].sy_call!=(sy_call_t *)(sYS_mkfifoat)) error_count++;
    if (sysent[SYS_mknodat].sy_call!=(sy_call_t *)(sYS_mknodat)) error_count++;
    if (sysent[SYS_openat].sy_call!=(sy_call_t *)(sYS_openat)) error_count++;
    if (sysent[SYS_readlinkat].sy_call!=(sy_call_t *)(sYS_readlinkat)) error_count++;
    if (sysent[SYS_renameat].sy_call!=(sy_call_t *)(sYS_renameat)) error_count++;
    if (sysent[SYS_symlinkat].sy_call!=(sy_call_t *)(sYS_symlinkat)) error_count++;
    if (sysent[SYS_unlinkat].sy_call!=(sy_call_t *)(sYS_unlinkat)) error_count++;
    if (sysent[SYS_posix_openpt].sy_call!=(sy_call_t *)(sYS_posix_openpt)) error_count++;
    if (sysent[SYS_gssd_syscall].sy_call!=(sy_call_t *)(sYS_gssd_syscall)) error_count++;
    if (sysent[SYS_jail_get].sy_call!=(sy_call_t *)(sYS_jail_get)) error_count++;
    if (sysent[SYS_jail_set].sy_call!=(sy_call_t *)(sYS_jail_set)) error_count++;
    if (sysent[SYS_jail_remove].sy_call!=(sy_call_t *)(sYS_jail_remove)) error_count++;
    if (sysent[SYS_closefrom].sy_call!=(sy_call_t *)(sYS_closefrom)) error_count++;
    if (sysent[SYS___semctl].sy_call!=(sy_call_t *)(sYS___semctl)) error_count++;
    if (sysent[SYS_msgctl].sy_call!=(sy_call_t *)(sYS_msgctl)) error_count++;
    if (sysent[SYS_shmctl].sy_call!=(sy_call_t *)(sYS_shmctl)) error_count++;
    if (sysent[SYS_lpathconf].sy_call!=(sy_call_t *)(sYS_lpathconf)) error_count++;
    if (sysent[SYS___cap_rights_get].sy_call!=(sy_call_t *)(sYS___cap_rights_get)) error_count++;
    if (sysent[SYS_cap_enter].sy_call!=(sy_call_t *)(sYS_cap_enter)) error_count++;
    if (sysent[SYS_cap_getmode].sy_call!=(sy_call_t *)(sYS_cap_getmode)) error_count++;
    if (sysent[SYS_pdfork].sy_call!=(sy_call_t *)(sYS_pdfork)) error_count++;
    if (sysent[SYS_pdkill].sy_call!=(sy_call_t *)(sYS_pdkill)) error_count++;
    if (sysent[SYS_pdgetpid].sy_call!=(sy_call_t *)(sYS_pdgetpid)) error_count++;
    if (sysent[SYS_pselect].sy_call!=(sy_call_t *)(sYS_pselect)) error_count++;
    if (sysent[SYS_getloginclass].sy_call!=(sy_call_t *)(sYS_getloginclass)) error_count++;
    if (sysent[SYS_setloginclass].sy_call!=(sy_call_t *)(sYS_setloginclass)) error_count++;
    if (sysent[SYS_rctl_get_racct].sy_call!=(sy_call_t *)(sYS_rctl_get_racct)) error_count++;
    if (sysent[SYS_rctl_get_rules].sy_call!=(sy_call_t *)(sYS_rctl_get_rules)) error_count++;
    if (sysent[SYS_rctl_get_limits].sy_call!=(sy_call_t *)(sYS_rctl_get_limits)) error_count++;
    if (sysent[SYS_rctl_add_rule].sy_call!=(sy_call_t *)(sYS_rctl_add_rule)) error_count++;
    if (sysent[SYS_rctl_remove_rule].sy_call!=(sy_call_t *)(sYS_rctl_remove_rule)) error_count++;
    if (sysent[SYS_posix_fallocate].sy_call!=(sy_call_t *)(sYS_posix_fallocate)) error_count++;
    if (sysent[SYS_posix_fadvise].sy_call!=(sy_call_t *)(sYS_posix_fadvise)) error_count++;
    if (sysent[SYS_wait6].sy_call!=(sy_call_t *)(sYS_wait6)) error_count++;
    if (sysent[SYS_cap_rights_limit].sy_call!=(sy_call_t *)(sYS_cap_rights_limit)) error_count++;
    if (sysent[SYS_cap_ioctls_limit].sy_call!=(sy_call_t *)(sYS_cap_ioctls_limit)) error_count++;
    if (sysent[SYS_cap_ioctls_get].sy_call!=(sy_call_t *)(sYS_cap_ioctls_get)) error_count++;
    if (sysent[SYS_cap_fcntls_limit].sy_call!=(sy_call_t *)(sYS_cap_fcntls_limit)) error_count++;
    if (sysent[SYS_cap_fcntls_get].sy_call!=(sy_call_t *)(sYS_cap_fcntls_get)) error_count++;
    if (sysent[SYS_bindat].sy_call!=(sy_call_t *)(sYS_bindat)) error_count++;
    if (sysent[SYS_connectat].sy_call!=(sy_call_t *)(sYS_connectat)) error_count++;
    if (sysent[SYS_chflagsat].sy_call!=(sy_call_t *)(sYS_chflagsat)) error_count++;
    if (sysent[SYS_accept4].sy_call!=(sy_call_t *)(sYS_accept4)) error_count++;
    if (sysent[SYS_pipe2].sy_call!=(sy_call_t *)(sYS_pipe2)) error_count++;
    if (sysent[SYS_aio_mlock].sy_call!=(sy_call_t *)(sYS_aio_mlock)) error_count++;
    if (sysent[SYS_procctl].sy_call!=(sy_call_t *)(sYS_procctl)) error_count++;
    if (sysent[SYS_ppoll].sy_call!=(sy_call_t *)(sYS_ppoll)) error_count++;
    if (sysent[SYS_futimens].sy_call!=(sy_call_t *)(sYS_futimens)) error_count++;
    if (sysent[SYS_utimensat].sy_call!=(sy_call_t *)(sYS_utimensat)) error_count++;
    if (sysent[SYS_numa_getaffinity].sy_call!=(sy_call_t *)(sYS_numa_getaffinity)) error_count++;
    if (sysent[SYS_numa_setaffinity].sy_call!=(sy_call_t *)(sYS_numa_setaffinity)) error_count++;
    if (sysent[SYS_fdatasync].sy_call!=(sy_call_t *)(sYS_fdatasync)) error_count++;
    if (sysent[SYS_MAXSYSCALL].sy_call!=(sy_call_t *)(sYS_MAXSYSCALL)) error_count++;
